…
   <int> <int>
 1     1    55
 2     2    59
 3     3    45
 4     4   375
 5     5   317
 6     6  1046
 7     7    49
 8     8    67
 9     9    55
10    10    53
11    11    38
12    12    65
> daily_count
# A tibble: 91 x 2
   Date       Count
   <date>     <int>
 1 2015-01-04    18
 2 2015-01-05    12
 3 2015-01-06    25
 4 2015-02-04    27
 5 2015-02-05     7
 6 2015-02-06    25
 7 2015-03-04    15
 8 2015-03-05     5
 9 2015-03-06    25
10 2015-04-04    12
# ... with 81 more rows
…
 Billing  Charges    Email Internet  Network   Others 
     363      139       15      472        2     1233 
> 
> #Create a new categorical variable with value as Open and Closed.
> #Open & Pending is to be categorized as Open and Closed & Solved is to be categorized as Closed.
> open_complaints=(comcast_d$Status=='Open'|comcast_d$Status=='Pending')
> closed_complaints=(comcast_d$Status=='Closed'|comcast_d$Status=='Solved')
> comcast_d$ComplaintStatus[open_complaints]="Open"
> comcast_d$ComplaintStatus[closed_complaints]='Closed'
> 
> #Provide state wise status of complaints in a stacked bar chart. Use the categorized variable from Q3.
> chart_data=summarize(group_by(comcast_d,State,ComplaintStatus),Count=n())
`summarise()` has grouped output by 'State'. You can override using the `.groups` argument.
> chart_data
# A tibble: 77 x 3
# Groups:   State [43]
   State       ComplaintStatus Count
   <chr>       <chr>           <int>
 1 Alabama     Closed             17
 2 Alabama     Open                9
 3 Arizona     Closed             14
 4 Arizona     Open                6
 5 Arkansas    Closed              6
 6 California  Closed            159
 7 California  Open               61
 8 Colorado    Closed             58
 9 Colorado    Open               22
10 Connecticut Closed              9
# ... with 67 more rows
…
